{
    "photos": {
        "page": 1,
        "pages": 11845,
        "perpage": 100,
        "total": "1184413",
        "photo": [
            {
                "id": "50747253617",
                "owner": "165755625@N03",
                "secret": "a47ff8dfa4",
                "server": "65535",
                "farm": 66,
                "title": "Memories",
                "ispublic": 1,
                "isfriend": 0,
                "isfamily": 0
            },
            {
                "id": "50746968702",
                "owner": "191429968@N07",
                "secret": "37f8840f1f",
                "server": "65535",
                "farm": 66,
                "title": "How Was Your Experience With High Profile Call Girls In Udaipur",
                "ispublic": 1,
                "isfriend": 0,
                "isfamily": 0
            },
            {
                "id": "50746803256",
                "owner": "105058877@N03",
                "secret": "6aaeec9769",
                "server": "65535",
                "farm": 66,
                "title": "Garage Art...",
                "ispublic": 1,
                "isfriend": 0,
                "isfamily": 0
            },
            {
                "id": "50746904647",
                "owner": "191460731@N04",
                "secret": "c4ba7ba244",
                "server": "65535",
                "farm": 66,
                "title": "call girls Al Ain $ O557869622 $ Sharah",
                "ispublic": 1,
                "isfriend": 0,
                "isfamily": 0
            },
            {
                "id": "50746048063",
                "owner": "191382190@N06",
                "secret": "52024aa4b9",
                "server": "65535",
                "farm": 66,
                "title": "Female Pune Escorts | Independent Sexy College Girls & Models",
                "ispublic": 1,
                "isfriend": 0,
                "isfamily": 0
            },
            {
                "id": "50746027363",
                "owner": "52473811@N06",
                "secret": "f276d0bf4c",
                "server": "65535",
                "farm": 66,
                "title": "Charlotte G",
                "ispublic": 1,
                "isfriend": 0,
                "isfamily": 0
            },
            {
                "id": "50746868517",
                "owner": "52473811@N06",
                "secret": "9851ec7a8b",
                "server": "65535",
                "farm": 66,
                "title": "Belle",
                "ispublic": 1,
                "isfriend": 0,
                "isfamily": 0
            },
            {
                "id": "50746852352",
                "owner": "184417997@N03",
                "secret": "de27e88e26",
                "server": "0",
                "farm": 0,
                "title": "DJ Joker at Know Where Club and Mall",
                "ispublic": 1,
                "isfriend": 0,
                "isfamily": 0
            },
            {
                "id": "50746828047",
                "owner": "184742745@N04",
                "secret": "0cca0c8e4f",
                "server": "65535",
                "farm": 66,
                "title": "\u0110\u1ed9i tuy\u1ec3n Vi\u1ec7t Nam g\u1eb7p b\u1ea5t l\u1ee3i l\u1edbn tr\u01b0\u1edbc tr\u1eadn g\u1eb7p Malaysia",
                "ispublic": 1,
                "isfriend": 0,
                "isfamily": 0
            },
            {
                "id": "50746743122",
                "owner": "124371809@N06",
                "secret": "63eae1674e",
                "server": "65535",
                "farm": 66,
                "title": "43 (108)..cosplay anime manga con",
                "ispublic": 1,
                "isfriend": 0,
                "isfamily": 0
            },
            {
                "id": "50746637061",
                "owner": "124371809@N06",
                "secret": "91c35c48d8",
                "server": "65535",
                "farm": 66,
                "title": "43 (118)..tattoo",
                "ispublic": 1,
                "isfriend": 0,
                "isfamily": 0
            },
            {
                "id": "50746737957",
                "owner": "124371809@N06",
                "secret": "191d41aec7",
                "server": "65535",
                "farm": 66,
                "title": "43 (132)...bourlesque show",
                "ispublic": 1,
                "isfriend": 0,
                "isfamily": 0
            },
            {
                "id": "50746599846",
                "owner": "191521430@N06",
                "secret": "c4bd5139d5",
                "server": "65535",
                "farm": 66,
                "title": "Call girls in chandigarh",
                "ispublic": 1,
                "isfriend": 0,
                "isfamily": 0
            },
            {
                "id": "50746494721",
                "owner": "191380562@N05",
                "secret": "0a6bd258c9",
                "server": "65535",
                "farm": 66,
                "title": "26",
                "ispublic": 1,
                "isfriend": 0,
                "isfamily": 0
            },
            {
                "id": "50746552997",
                "owner": "189336260@N08",
                "secret": "a76fa576ee",
                "server": "65535",
                "farm": 66,
                "title": "dubai escorts +971561616995 Escorts DownTown",
                "ispublic": 1,
                "isfriend": 0,
                "isfamily": 0
            },
            {
                "id": "50746552922",
                "owner": "189336260@N08",
                "secret": "1c18c6c921",
                "server": "65535",
                "farm": 66,
                "title": "dubai escorts +971561616995 Escorts DownTown",
                "ispublic": 1,
                "isfriend": 0,
                "isfamily": 0
            },
            {
                "id": "50745709193",
                "owner": "189336260@N08",
                "secret": "34b8526fe7",
                "server": "65535",
                "farm": 66,
                "title": "dubai escorts +971561616995 Escorts DownTown",
                "ispublic": 1,
                "isfriend": 0,
                "isfamily": 0
            },
            {
                "id": "50745709118",
                "owner": "189336260@N08",
                "secret": "a82f6fbbd7",
                "server": "65535",
                "farm": 66,
                "title": "dubai escorts +971561616995 Escorts DownTown",
                "ispublic": 1,
                "isfriend": 0,
                "isfamily": 0
            },
            {
                "id": "50746552627",
                "owner": "189336260@N08",
                "secret": "768a4291ce",
                "server": "65535",
                "farm": 66,
                "title": "dubai escorts +971561616995 Escorts DownTown",
                "ispublic": 1,
                "isfriend": 0,
                "isfamily": 0
            },
            {
                "id": "50746445686",
                "owner": "189336260@N08",
                "secret": "dc361ba7c4",
                "server": "65535",
                "farm": 66,
                "title": "dubai escorts +971561616995 Escorts DownTown",
                "ispublic": 1,
                "isfriend": 0,
                "isfamily": 0
            },
            {
                "id": "50746445571",
                "owner": "189336260@N08",
                "secret": "a633c03ec3",
                "server": "65535",
                "farm": 66,
                "title": "dubai escorts +971561616995 Escorts DownTown",
                "ispublic": 1,
                "isfriend": 0,
                "isfamily": 0
            },
            {
                "id": "50746552477",
                "owner": "189336260@N08",
                "secret": "5d37a23b1d",
                "server": "65535",
                "farm": 66,
                "title": "dubai escorts +971561616995 Escorts DownTown",
                "ispublic": 1,
                "isfriend": 0,
                "isfamily": 0
            },
            {
                "id": "50745708758",
                "owner": "189336260@N08",
                "secret": "a828223925",
                "server": "65535",
                "farm": 66,
                "title": "dubai escorts +971561616995 Escorts DownTown",
                "ispublic": 1,
                "isfriend": 0,
                "isfamily": 0
            },
            {
                "id": "50745708633",
                "owner": "189336260@N08",
                "secret": "64dd85636b",
                "server": "65535",
                "farm": 66,
                "title": "dubai escorts +971561616995 Escorts DownTown",
                "ispublic": 1,
                "isfriend": 0,
                "isfamily": 0
            },
            {
                "id": "50746552247",
                "owner": "189336260@N08",
                "secret": "68b31d81d0",
                "server": "65535",
                "farm": 66,
                "title": "dubai escorts +971561616995 Escorts DownTown",
                "ispublic": 1,
                "isfriend": 0,
                "isfamily": 0
            },
            {
                "id": "50745708428",
                "owner": "189336260@N08",
                "secret": "5e790dddd0",
                "server": "65535",
                "farm": 66,
                "title": "dubai escorts +971561616995 Escorts DownTown",
                "ispublic": 1,
                "isfriend": 0,
                "isfamily": 0
            },
            {
                "id": "50746444946",
                "owner": "189336260@N08",
                "secret": "b303d7ab5a",
                "server": "65535",
                "farm": 66,
                "title": "dubai escorts +971561616995 Escorts DownTown",
                "ispublic": 1,
                "isfriend": 0,
                "isfamily": 0
            },
            {
                "id": "50746444861",
                "owner": "189336260@N08",
                "secret": "8c55ecac7c",
                "server": "65535",
                "farm": 66,
                "title": "dubai escorts +971561616995 Escorts DownTown",
                "ispublic": 1,
                "isfriend": 0,
                "isfamily": 0
            },
            {
                "id": "50745708168",
                "owner": "189336260@N08",
                "secret": "88de205aa7",
                "server": "65535",
                "farm": 66,
                "title": "dubai escorts +971561616995 Escorts DownTown",
                "ispublic": 1,
                "isfriend": 0,
                "isfamily": 0
            },
            {
                "id": "50746551682",
                "owner": "189336260@N08",
                "secret": "b06d33654d",
                "server": "65535",
                "farm": 66,
                "title": "dubai escorts +971561616995 Escorts DownTown",
                "ispublic": 1,
                "isfriend": 0,
                "isfamily": 0
            },
            {
                "id": "50746444261",
                "owner": "189336260@N08",
                "secret": "31a16b2577",
                "server": "65535",
                "farm": 66,
                "title": "dubai escorts +971561616995 Escorts DownTown",
                "ispublic": 1,
                "isfriend": 0,
                "isfamily": 0
            },
            {
                "id": "50746444401",
                "owner": "189336260@N08",
                "secret": "d6bd7bb4d1",
                "server": "65535",
                "farm": 66,
                "title": "dubai escorts +971561616995 Escorts DownTown",
                "ispublic": 1,
                "isfriend": 0,
                "isfamily": 0
            },
            {
                "id": "50745705063",
                "owner": "189176958@N05",
                "secret": "9cd61bf022",
                "server": "65535",
                "farm": 66,
                "title": "HOT GIRLS IN KARACHI 03002736969",
                "ispublic": 1,
                "isfriend": 0,
                "isfamily": 0
            },
            {
                "id": "50746420931",
                "owner": "128603380@N07",
                "secret": "e996993612",
                "server": "65535",
                "farm": 66,
                "title": "\u2730sweetness of morning\u2730\ud83c\udfa8",
                "ispublic": 1,
                "isfriend": 0,
                "isfamily": 0
            },
            {
                "id": "50746465172",
                "owner": "158520259@N03",
                "secret": "7d7ac02fcd",
                "server": "65535",
                "farm": 66,
                "title": "nightdress in daylight",
                "ispublic": 1,
                "isfriend": 0,
                "isfamily": 0
            },
            {
                "id": "50746350811",
                "owner": "148179219@N03",
                "secret": "6b54090cda",
                "server": "65535",
                "farm": 66,
                "title": "Jayne Mansfield",
                "ispublic": 1,
                "isfriend": 0,
                "isfamily": 0
            },
            {
                "id": "50746458382",
                "owner": "148179219@N03",
                "secret": "408ac816e6",
                "server": "65535",
                "farm": 66,
                "title": "Jayne Mansfield",
                "ispublic": 1,
                "isfriend": 0,
                "isfamily": 0
            },
            {
                "id": "50745613903",
                "owner": "148179219@N03",
                "secret": "383cce68fd",
                "server": "65535",
                "farm": 66,
                "title": "Jayne Mansfield",
                "ispublic": 1,
                "isfriend": 0,
                "isfamily": 0
            },
            {
                "id": "50746455297",
                "owner": "191463772@N04",
                "secret": "9542697dda",
                "server": "65535",
                "farm": 66,
                "title": "(440)",
                "ispublic": 1,
                "isfriend": 0,
                "isfamily": 0
            },
            {
                "id": "50745546243",
                "owner": "190677502@N04",
                "secret": "58db794551",
                "server": "65535",
                "farm": 66,
                "title": "Photos",
                "ispublic": 1,
                "isfriend": 0,
                "isfamily": 0
            },
            {
                "id": "50745531378",
                "owner": "191492785@N03",
                "secret": "fbaab7b9f2",
                "server": "65535",
                "farm": 66,
                "title": "",
                "ispublic": 1,
                "isfriend": 0,
                "isfamily": 0
            },
            {
                "id": "50745522923",
                "owner": "191492785@N03",
                "secret": "bbf4706230",
                "server": "65535",
                "farm": 66,
                "title": "",
                "ispublic": 1,
                "isfriend": 0,
                "isfamily": 0
            },
            {
                "id": "50745522973",
                "owner": "191492785@N03",
                "secret": "fedc2f6844",
                "server": "65535",
                "farm": 66,
                "title": "",
                "ispublic": 1,
                "isfriend": 0,
                "isfamily": 0
            },
            {
                "id": "50745522863",
                "owner": "191492785@N03",
                "secret": "0ee968247f",
                "server": "65535",
                "farm": 66,
                "title": "",
                "ispublic": 1,
                "isfriend": 0,
                "isfamily": 0
            },
            {
                "id": "50745522818",
                "owner": "191492785@N03",
                "secret": "7611339a3b",
                "server": "65535",
                "farm": 66,
                "title": "",
                "ispublic": 1,
                "isfriend": 0,
                "isfamily": 0
            },
            {
                "id": "50746259896",
                "owner": "191492785@N03",
                "secret": "7248565be5",
                "server": "65535",
                "farm": 66,
                "title": "",
                "ispublic": 1,
                "isfriend": 0,
                "isfamily": 0
            },
            {
                "id": "50746259851",
                "owner": "191492785@N03",
                "secret": "d25fb8ae20",
                "server": "65535",
                "farm": 66,
                "title": "",
                "ispublic": 1,
                "isfriend": 0,
                "isfamily": 0
            },
            {
                "id": "50746259806",
                "owner": "191492785@N03",
                "secret": "627f8d7f85",
                "server": "65535",
                "farm": 66,
                "title": "",
                "ispublic": 1,
                "isfriend": 0,
                "isfamily": 0
            },
            {
                "id": "50745522678",
                "owner": "191492785@N03",
                "secret": "eeed0726fc",
                "server": "65535",
                "farm": 66,
                "title": "",
                "ispublic": 1,
                "isfriend": 0,
                "isfamily": 0
            },
            {
                "id": "50745522643",
                "owner": "191492785@N03",
                "secret": "5608a998a4",
                "server": "65535",
                "farm": 66,
                "title": "",
                "ispublic": 1,
                "isfriend": 0,
                "isfamily": 0
            },
            {
                "id": "50746366352",
                "owner": "191492785@N03",
                "secret": "e6948557c9",
                "server": "65535",
                "farm": 66,
                "title": "",
                "ispublic": 1,
                "isfriend": 0,
                "isfamily": 0
            },
            {
                "id": "50746259701",
                "owner": "191492785@N03",
                "secret": "f6b4819b34",
                "server": "65535",
                "farm": 66,
                "title": "",
                "ispublic": 1,
                "isfriend": 0,
                "isfamily": 0
            },
            {
                "id": "50746259636",
                "owner": "191492785@N03",
                "secret": "475e9eb953",
                "server": "65535",
                "farm": 66,
                "title": "",
                "ispublic": 1,
                "isfriend": 0,
                "isfamily": 0
            },
            {
                "id": "50746259571",
                "owner": "191492785@N03",
                "secret": "b4a5e0ae72",
                "server": "65535",
                "farm": 66,
                "title": "",
                "ispublic": 1,
                "isfriend": 0,
                "isfamily": 0
            },
            {
                "id": "50746259536",
                "owner": "191492785@N03",
                "secret": "4b3c250001",
                "server": "65535",
                "farm": 66,
                "title": "",
                "ispublic": 1,
                "isfriend": 0,
                "isfamily": 0
            },
            {
                "id": "50746259491",
                "owner": "191492785@N03",
                "secret": "a97d567a05",
                "server": "65535",
                "farm": 66,
                "title": "",
                "ispublic": 1,
                "isfriend": 0,
                "isfamily": 0
            },
            {
                "id": "50745522413",
                "owner": "191492785@N03",
                "secret": "c2e7442ce1",
                "server": "65535",
                "farm": 66,
                "title": "",
                "ispublic": 1,
                "isfriend": 0,
                "isfamily": 0
            },
            {
                "id": "50746366112",
                "owner": "191492785@N03",
                "secret": "9598905f36",
                "server": "65535",
                "farm": 66,
                "title": "",
                "ispublic": 1,
                "isfriend": 0,
                "isfamily": 0
            },
            {
                "id": "50746366082",
                "owner": "191492785@N03",
                "secret": "ef37deae1d",
                "server": "65535",
                "farm": 66,
                "title": "",
                "ispublic": 1,
                "isfriend": 0,
                "isfamily": 0
            },
            {
                "id": "50746366102",
                "owner": "191492785@N03",
                "secret": "9f09cd0be5",
                "server": "65535",
                "farm": 66,
                "title": "",
                "ispublic": 1,
                "isfriend": 0,
                "isfamily": 0
            },
            {
                "id": "50746259391",
                "owner": "191492785@N03",
                "secret": "519dac4405",
                "server": "65535",
                "farm": 66,
                "title": "",
                "ispublic": 1,
                "isfriend": 0,
                "isfamily": 0
            },
            {
                "id": "50746259376",
                "owner": "191492785@N03",
                "secret": "0ac4c437dc",
                "server": "65535",
                "farm": 66,
                "title": "",
                "ispublic": 1,
                "isfriend": 0,
                "isfamily": 0
            },
            {
                "id": "50746366067",
                "owner": "191492785@N03",
                "secret": "5f67f3bb90",
                "server": "65535",
                "farm": 66,
                "title": "",
                "ispublic": 1,
                "isfriend": 0,
                "isfamily": 0
            },
            {
                "id": "50745522388",
                "owner": "191492785@N03",
                "secret": "87d08106d7",
                "server": "65535",
                "farm": 66,
                "title": "",
                "ispublic": 1,
                "isfriend": 0,
                "isfamily": 0
            },
            {
                "id": "50746366007",
                "owner": "191492785@N03",
                "secret": "da458c2c97",
                "server": "65535",
                "farm": 66,
                "title": "",
                "ispublic": 1,
                "isfriend": 0,
                "isfamily": 0
            },
            {
                "id": "50745522318",
                "owner": "191492785@N03",
                "secret": "0323e7d918",
                "server": "65535",
                "farm": 66,
                "title": "",
                "ispublic": 1,
                "isfriend": 0,
                "isfamily": 0
            },
            {
                "id": "50746259366",
                "owner": "191492785@N03",
                "secret": "88623dec59",
                "server": "65535",
                "farm": 66,
                "title": "",
                "ispublic": 1,
                "isfriend": 0,
                "isfamily": 0
            },
            {
                "id": "50746366017",
                "owner": "191492785@N03",
                "secret": "9ef1be792b",
                "server": "65535",
                "farm": 66,
                "title": "",
                "ispublic": 1,
                "isfriend": 0,
                "isfamily": 0
            },
            {
                "id": "50746365987",
                "owner": "191492785@N03",
                "secret": "b8c7143c39",
                "server": "65535",
                "farm": 66,
                "title": "",
                "ispublic": 1,
                "isfriend": 0,
                "isfamily": 0
            },
            {
                "id": "50746365957",
                "owner": "191492785@N03",
                "secret": "d0411ec5cc",
                "server": "65535",
                "farm": 66,
                "title": "",
                "ispublic": 1,
                "isfriend": 0,
                "isfamily": 0
            },
            {
                "id": "50746259311",
                "owner": "191492785@N03",
                "secret": "70090518fe",
                "server": "65535",
                "farm": 66,
                "title": "",
                "ispublic": 1,
                "isfriend": 0,
                "isfamily": 0
            },
            {
                "id": "50746259296",
                "owner": "191492785@N03",
                "secret": "f5e0d10db0",
                "server": "65535",
                "farm": 66,
                "title": "",
                "ispublic": 1,
                "isfriend": 0,
                "isfamily": 0
            },
            {
                "id": "50746259266",
                "owner": "191492785@N03",
                "secret": "4a6b4b4c22",
                "server": "65535",
                "farm": 66,
                "title": "",
                "ispublic": 1,
                "isfriend": 0,
                "isfamily": 0
            },
            {
                "id": "50746259251",
                "owner": "191492785@N03",
                "secret": "efbd0b17dd",
                "server": "65535",
                "farm": 66,
                "title": "",
                "ispublic": 1,
                "isfriend": 0,
                "isfamily": 0
            },
            {
                "id": "50746365932",
                "owner": "191492785@N03",
                "secret": "6e97392038",
                "server": "65535",
                "farm": 66,
                "title": "",
                "ispublic": 1,
                "isfriend": 0,
                "isfamily": 0
            },
            {
                "id": "50745522213",
                "owner": "191492785@N03",
                "secret": "51a46ea259",
                "server": "65535",
                "farm": 66,
                "title": "",
                "ispublic": 1,
                "isfriend": 0,
                "isfamily": 0
            },
            {
                "id": "50745522228",
                "owner": "191492785@N03",
                "secret": "0c7f1efae3",
                "server": "65535",
                "farm": 66,
                "title": "",
                "ispublic": 1,
                "isfriend": 0,
                "isfamily": 0
            },
            {
                "id": "50746259231",
                "owner": "191492785@N03",
                "secret": "51a46ea259",
                "server": "65535",
                "farm": 66,
                "title": "",
                "ispublic": 1,
                "isfriend": 0,
                "isfamily": 0
            },
            {
                "id": "50746259206",
                "owner": "191492785@N03",
                "secret": "bcf5038ae3",
                "server": "65535",
                "farm": 66,
                "title": "",
                "ispublic": 1,
                "isfriend": 0,
                "isfamily": 0
            },
            {
                "id": "50745522198",
                "owner": "191492785@N03",
                "secret": "1992d389ae",
                "server": "65535",
                "farm": 66,
                "title": "",
                "ispublic": 1,
                "isfriend": 0,
                "isfamily": 0
            },
            {
                "id": "50745522158",
                "owner": "191492785@N03",
                "secret": "e1d28812f7",
                "server": "65535",
                "farm": 66,
                "title": "",
                "ispublic": 1,
                "isfriend": 0,
                "isfamily": 0
            },
            {
                "id": "50746259156",
                "owner": "191492785@N03",
                "secret": "1b63262d24",
                "server": "65535",
                "farm": 66,
                "title": "",
                "ispublic": 1,
                "isfriend": 0,
                "isfamily": 0
            },
            {
                "id": "50746365852",
                "owner": "191492785@N03",
                "secret": "05cfb9a582",
                "server": "65535",
                "farm": 66,
                "title": "",
                "ispublic": 1,
                "isfriend": 0,
                "isfamily": 0
            }
        ]
    },
    "stat": "ok"
}